<?xml version="1.0" encoding="UTF-8"?>
<svg xmlns="http://www.w3.org/2000/svg" xmlns:xlink="http://www.w3.org/1999/xlink" width="24pt" height="24pt" viewBox="0 0 24 24" version="1.1">
<g id="surface19">
<path style=" stroke:none;fill-rule:nonzero;fill-opacity:1;" d="M 4 2 L 4 22 L 21.3125 12 Z M 4 2 "/>
</g>
</svg>
